{
    "com.msopentech.websql": {
        "source": {
            "type": "local",
            "path": "C:\\Users\\Robert\\.plugman\\cache\\com.msopentech.websql\\0.0.7\\package"
        }
    },
    "org.apache.cordova.device-motion": {
        "source": {
            "type": "local",
            "path": "C:\\Users\\Robert\\.plugman\\cache\\org.apache.cordova.device-motion\\0.2.10\\package"
        }
    },
    "org.apache.cordova.device-orientation": {
        "source": {
            "type": "local",
            "path": "C:\\Users\\Robert\\.plugman\\cache\\org.apache.cordova.device-orientation\\0.3.9\\package"
        }
    },
    "org.apache.cordova.geolocation": {
        "source": {
            "type": "local",
            "path": "C:\\Users\\Robert\\.plugman\\cache\\org.apache.cordova.geolocation\\0.3.12\\package"
        }
    },
    "org.apache.cordova.network-information": {
        "source": {
            "type": "local",
            "path": "C:\\Users\\Robert\\.plugman\\cache\\org.apache.cordova.network-information\\0.2.15\\package"
        }
    },
    "org.apache.cordova.splashscreen": {
        "source": {
            "type": "local",
            "path": "C:\\Users\\Robert\\.plugman\\cache\\org.apache.cordova.splashscreen\\0.3.5\\package"
        }
    },
    "org.apache.cordova.statusbar": {
        "source": {
            "type": "local",
            "path": "C:\\Users\\Robert\\.plugman\\cache\\org.apache.cordova.statusbar\\0.1.9\\package"
        }
    },
    "cordova-plugin-inappbrowser": {
        "source": {
            "type": "registry",
            "id": "cordova-plugin-inappbrowser"
        },
        "is_top_level": true,
        "variables": {}
    },
    "cordova-plugin-websql": {
        "source": {
            "type": "registry",
            "id": "cordova-plugin-websql"
        },
        "is_top_level": true,
        "variables": {}
    },
    "cordova-plugin-device": {
        "source": {
            "type": "registry",
            "id": "cordova-plugin-device"
        },
        "is_top_level": true,
        "variables": {}
    },
    "cordova-plugin-device-motion": {
        "source": {
            "type": "registry",
            "id": "cordova-plugin-device-motion"
        },
        "is_top_level": true,
        "variables": {}
    },
    "cordova-plugin-device-orientation": {
        "source": {
            "type": "registry",
            "id": "cordova-plugin-device-orientation"
        },
        "is_top_level": true,
        "variables": {}
    },
    "cordova-plugin-file": {
        "source": {
            "type": "registry",
            "id": "cordova-plugin-file"
        },
        "is_top_level": false,
        "variables": {}
    },
    "cordova-plugin-file-transfer": {
        "source": {
            "type": "registry",
            "id": "cordova-plugin-file-transfer"
        },
        "is_top_level": true,
        "variables": {}
    },
    "cordova-plugin-geolocation": {
        "source": {
            "type": "registry",
            "id": "cordova-plugin-geolocation"
        },
        "is_top_level": true,
        "variables": {}
    },
    "cordova-plugin-network-information": {
        "source": {
            "type": "registry",
            "id": "cordova-plugin-network-information"
        },
        "is_top_level": true,
        "variables": {}
    },
    "cordova-plugin-splashscreen": {
        "source": {
            "type": "registry",
            "id": "cordova-plugin-splashscreen"
        },
        "is_top_level": true,
        "variables": {}
    },
    "cordova-plugin-statusbar": {
        "source": {
            "type": "registry",
            "id": "cordova-plugin-statusbar"
        },
        "is_top_level": true,
        "variables": {}
    },
    "cordova-plugin-whitelist": {
        "source": {
            "type": "registry",
            "id": "cordova-plugin-whitelist@1"
        },
        "is_top_level": true,
        "variables": {}
    }
}